[gd_scene load_steps=2 format=2]

[sub_resource type="RectangleShape2D" id=1]
extents = Vector2( 18.5714, 10 )

[node name="wall" type="RigidBody2D"]
mode = 1

[node name="CollisionShape2D" type="CollisionShape2D" parent="."]
position = Vector2( -1.90735e-06, 0 )
scale = Vector2( 5.38462, 1 )
shape = SubResource( 1 )

