[gd_scene load_steps=5 format=2]

[ext_resource path="res://scenes/game.tscn" type="PackedScene" id=1]
[ext_resource path="res://scenes/game/survival.gd" type="Script" id=2]
[ext_resource path="res://assets/fonts/ubuntu/Ubuntu-M.ttf" type="DynamicFontData" id=3]

[sub_resource type="DynamicFont" id=1]
size = 32
font_data = ExtResource( 3 )

[node name="game" instance=ExtResource( 1 )]
script = ExtResource( 2 )

[node name="player_score" type="Label" parent="." index="17"]
margin_left = -550.0
margin_top = -325.0
margin_right = -510.0
margin_bottom = -293.0
size_flags_horizontal = 2
size_flags_vertical = 0
custom_fonts/font = SubResource( 1 )
custom_colors/font_color = Color( 1, 0, 0, 1 )
text = "0"


[editable path="pause_button"]
